…
x dplyr::lag()            masks stats::lag()
# A tibble: 1 x 3
  Date       `Total Detained` `Total Tested`
  <chr>      <chr>            <chr>         
1 04/21/2021 15,054           138,334       
# A tibble: 1 x 4
  Date      `Total COVID-19 Confirmed in~ `Total Deaths` `Total Cumulative COVI~
  <chr>     <chr>                         <chr>          <chr>                  
1 04/21/20~ 992                           9              12,085                 
# A tibble: 1 x 6
  Date     `Total Detained` `Total Cumulative COV~ `Total Tested` `Total Deaths`
  <chr>    <chr>            <chr>                  <chr>          <chr>         
1 04/21/2~ 15,054           12,085                 138,334        9             
# ... with 1 more variable: Total COVID-19 Confirmed in Custody <chr>
# A tibble: 127 x 5
   Date   `Custody/AOR/Fac~ `Confirmed cases ~ `Detainee death~ `Total confirme~
   <chr>  <chr>             <chr>              <chr>            <chr>           
 1 04/21~ Charleston Count~ 0                  0                2               
 2 04/21~ Columbia Regiona~ 0                  0                1               
 3 04/21~ Folkston ICE Pro~ 0                  0                104             
 4 04/21~ Irwin County Det~ 0                  0                71              
 5 04/21~ Robert A. Deyton~ 0                  0                6               
 6 04/21~ Sheriff Al Canno~ 0                  0                1               
 7 04/21~ Stewart Detentio~ 2                  4                495             
 8 04/21~ Howard County De~ 0                  0                2               
 9 04/21~ Worcester County~ 0                  0                1               
10 04/21~ Bristol County D~ 0                  0                9               
# ... with 117 more rows
…
x dplyr::lag()            masks stats::lag()
# A tibble: 1 x 3
  Date       `Total Detained` `Total Tested`
  <chr>      <chr>            <chr>         
1 04/21/2021 15,054           138,334       
# A tibble: 1 x 4
  Date      `Total COVID-19 Confirmed in~ `Total Deaths` `Total Cumulative COVI~
  <chr>     <chr>                         <chr>          <chr>                  
1 04/21/20~ 992                           9              12,085                 
# A tibble: 1 x 6
  Date     `Total Detained` `Total Cumulative COV~ `Total Tested` `Total Deaths`
  <chr>    <chr>            <chr>                  <chr>          <chr>         
1 04/21/2~ 15,054           12,085                 138,334        9             
# ... with 1 more variable: Total COVID-19 Confirmed in Custody <chr>
# A tibble: 127 x 5
   Date   `Custody/AOR/Fac~ `Confirmed cases ~ `Detainee death~ `Total confirme~
   <chr>  <chr>             <chr>              <chr>            <chr>           
 1 04/21~ Charleston Count~ 0                  0                2               
 2 04/21~ Columbia Regiona~ 0                  0                1               
 3 04/21~ Folkston ICE Pro~ 0                  0                104             
 4 04/21~ Irwin County Det~ 0                  0                71              
 5 04/21~ Robert A. Deyton~ 0                  0                6               
 6 04/21~ Sheriff Al Canno~ 0                  0                1               
 7 04/21~ Stewart Detentio~ 2                  4                495             
 8 04/21~ Howard County De~ 0                  0                2               
 9 04/21~ Worcester County~ 0                  0                1               
10 04/21~ Bristol County D~ 0                  0                9               
# ... with 117 more rows
…
x dplyr::lag()            masks stats::lag()
# A tibble: 1 x 3
  Date       `Total Detained` `Total Tested`
  <chr>      <chr>            <chr>         
1 04/21/2021 15,054           138,334       
# A tibble: 1 x 4
  Date      `Total COVID-19 Confirmed in~ `Total Deaths` `Total Cumulative COVI~
  <chr>     <chr>                         <chr>          <chr>                  
1 04/21/20~ 992                           9              12,085                 
# A tibble: 1 x 6
  Date     `Total Detained` `Total Cumulative COV~ `Total Tested` `Total Deaths`
  <chr>    <chr>            <chr>                  <chr>          <chr>         
1 04/21/2~ 15,054           12,085                 138,334        9             
# ... with 1 more variable: Total COVID-19 Confirmed in Custody <chr>
# A tibble: 127 x 5
   Date   `Custody/AOR/Fac~ `Confirmed cases ~ `Detainee death~ `Total confirme~
   <chr>  <chr>             <chr>              <chr>            <chr>           
 1 04/21~ Charleston Count~ 0                  0                2               
 2 04/21~ Columbia Regiona~ 0                  0                1               
 3 04/21~ Folkston ICE Pro~ 0                  0                104             
 4 04/21~ Irwin County Det~ 0                  0                71              
 5 04/21~ Robert A. Deyton~ 0                  0                6               
 6 04/21~ Sheriff Al Canno~ 0                  0                1               
 7 04/21~ Stewart Detentio~ 2                  4                495             
 8 04/21~ Howard County De~ 0                  0                2               
 9 04/21~ Worcester County~ 0                  0                1               
10 04/21~ Bristol County D~ 0                  0                9               
# ... with 117 more rows
…
x dplyr::lag()            masks stats::lag()
# A tibble: 1 x 3
  Date       `Total Detained` `Total Tested`
  <chr>                 <dbl>          <dbl>
1 04/21/2021            15054         138334
# A tibble: 1 x 4
  Date      `Total COVID-19 Confirmed in~ `Total Deaths` `Total Cumulative COVI~
  <chr>                             <dbl>          <dbl>                   <dbl>
1 04/21/20~                           992              9                   12085
# A tibble: 1 x 6
  Date     `Total Detained` `Total Cumulative COV~ `Total Tested` `Total Deaths`
  <chr>               <dbl>                  <dbl>          <dbl>          <dbl>
1 04/21/2~            15054                  12085         138334              9
# ... with 1 more variable: Total COVID-19 Confirmed in Custody <dbl>
# A tibble: 127 x 5
   Date   `Custody/AOR/Fac~ `Confirmed cases ~ `Detainee death~ `Total confirme~
   <chr>  <chr>             <chr>              <chr>            <chr>           
 1 04/21~ Charleston Count~ 0                  0                2               
 2 04/21~ Columbia Regiona~ 0                  0                1               
 3 04/21~ Folkston ICE Pro~ 0                  0                104             
 4 04/21~ Irwin County Det~ 0                  0                71              
 5 04/21~ Robert A. Deyton~ 0                  0                6               
 6 04/21~ Sheriff Al Canno~ 0                  0                1               
 7 04/21~ Stewart Detentio~ 2                  4                495             
 8 04/21~ Howard County De~ 0                  0                2               
 9 04/21~ Worcester County~ 0                  0                1               
10 04/21~ Bristol County D~ 0                  0                9               
# ... with 117 more rows
…
x dplyr::lag()            masks stats::lag()
# A tibble: 1 x 3
  Date       `Total Detained` `Total Tested`
  <chr>                 <dbl>          <dbl>
1 04/22/2021            15054         138334
# A tibble: 1 x 4
  Date      `Total COVID-19 Confirmed in~ `Total Deaths` `Total Cumulative COVI~
  <chr>                             <dbl>          <dbl>                   <dbl>
1 04/22/20~                           992              9                   12085
# A tibble: 1 x 6
  Date     `Total Detained` `Total Cumulative COV~ `Total Tested` `Total Deaths`
  <chr>               <dbl>                  <dbl>          <dbl>          <dbl>
1 04/22/2~            15054                  12085         138334              9
# ... with 1 more variable: Total COVID-19 Confirmed in Custody <dbl>
# A tibble: 127 x 5
   Date   `Custody/AOR/Fac~ `Confirmed cases ~ `Detainee death~ `Total confirme~
   <chr>  <chr>             <chr>              <chr>            <chr>           
 1 04/22~ Charleston Count~ 0                  0                2               
 2 04/22~ Columbia Regiona~ 0                  0                1               
 3 04/22~ Folkston ICE Pro~ 0                  0                104             
 4 04/22~ Irwin County Det~ 0                  0                71              
 5 04/22~ Robert A. Deyton~ 0                  0                6               
 6 04/22~ Sheriff Al Canno~ 0                  0                1               
 7 04/22~ Stewart Detentio~ 2                  4                495             
 8 04/22~ Howard County De~ 0                  0                2               
 9 04/22~ Worcester County~ 0                  0                1               
10 04/22~ Bristol County D~ 0                  0                9               
# ... with 117 more rows
…
x dplyr::lag()            masks stats::lag()
# A tibble: 1 x 3
  Date       `Total Detained` `Total Tested`
  <chr>                 <dbl>          <dbl>
1 04/23/2021            15054         138334
# A tibble: 1 x 4
  Date      `Total COVID-19 Confirmed in~ `Total Deaths` `Total Cumulative COVI~
  <chr>                             <dbl>          <dbl>                   <dbl>
1 04/23/20~                          1028              9                   12269
# A tibble: 1 x 6
  Date     `Total Detained` `Total Cumulative COV~ `Total Tested` `Total Deaths`
  <chr>               <dbl>                  <dbl>          <dbl>          <dbl>
1 04/23/2~            15054                  12269         138334              9
# ... with 1 more variable: Total COVID-19 Confirmed in Custody <dbl>
# A tibble: 129 x 5
   Date   `Custody/AOR/Fac~ `Confirmed cases ~ `Detainee death~ `Total confirme~
   <chr>  <chr>             <chr>              <chr>            <chr>           
 1 04/23~ Charleston Count~ 0                  0                2               
 2 04/23~ Columbia Regiona~ 0                  0                1               
 3 04/23~ Folkston ICE Pro~ 0                  0                104             
 4 04/23~ Irwin County Det~ 0                  0                71              
 5 04/23~ Robert A. Deyton~ 0                  0                6               
 6 04/23~ Sheriff Al Canno~ 0                  0                1               
 7 04/23~ Stewart Detentio~ 2                  4                495             
 8 04/23~ Howard County De~ 0                  0                2               
 9 04/23~ Worcester County~ 0                  0                1               
10 04/23~ Bristol County D~ 0                  0                9               
# ... with 119 more rows
…
x dplyr::lag()            masks stats::lag()
# A tibble: 1 x 3
  Date       `Total Detained` `Total Tested`
  <chr>                 <dbl>          <dbl>
1 04/24/2021            15054         138334
# A tibble: 1 x 4
  Date      `Total COVID-19 Confirmed in~ `Total Deaths` `Total Cumulative COVI~
  <chr>                             <dbl>          <dbl>                   <dbl>
1 04/24/20~                          1028              9                   12269
# A tibble: 1 x 6
  Date     `Total Detained` `Total Cumulative COV~ `Total Tested` `Total Deaths`
  <chr>               <dbl>                  <dbl>          <dbl>          <dbl>
1 04/24/2~            15054                  12269         138334              9
# ... with 1 more variable: Total COVID-19 Confirmed in Custody <dbl>
# A tibble: 129 x 5
   Date   `Custody/AOR/Fac~ `Confirmed cases ~ `Detainee death~ `Total confirme~
   <chr>  <chr>             <chr>              <chr>            <chr>           
 1 04/24~ Charleston Count~ 0                  0                2               
 2 04/24~ Columbia Regiona~ 0                  0                1               
 3 04/24~ Folkston ICE Pro~ 0                  0                104             
 4 04/24~ Irwin County Det~ 0                  0                71              
 5 04/24~ Robert A. Deyton~ 0                  0                6               
 6 04/24~ Sheriff Al Canno~ 0                  0                1               
 7 04/24~ Stewart Detentio~ 2                  4                495             
 8 04/24~ Howard County De~ 0                  0                2               
 9 04/24~ Worcester County~ 0                  0                1               
10 04/24~ Bristol County D~ 0                  0                9               
# ... with 119 more rows
…
x dplyr::lag()            masks stats::lag()
# A tibble: 1 x 3
  Date       `Total Detained` `Total Tested`
  <chr>                 <dbl>          <dbl>
1 04/25/2021            15054         138334
# A tibble: 1 x 4
  Date      `Total COVID-19 Confirmed in~ `Total Deaths` `Total Cumulative COVI~
  <chr>                             <dbl>          <dbl>                   <dbl>
1 04/25/20~                          1028              9                   12269
# A tibble: 1 x 6
  Date     `Total Detained` `Total Cumulative COV~ `Total Tested` `Total Deaths`
  <chr>               <dbl>                  <dbl>          <dbl>          <dbl>
1 04/25/2~            15054                  12269         138334              9
# ... with 1 more variable: Total COVID-19 Confirmed in Custody <dbl>
# A tibble: 129 x 5
   Date   `Custody/AOR/Fac~ `Confirmed cases ~ `Detainee death~ `Total confirme~
   <chr>  <chr>             <chr>              <chr>            <chr>           
 1 04/25~ Charleston Count~ 0                  0                2               
 2 04/25~ Columbia Regiona~ 0                  0                1               
 3 04/25~ Folkston ICE Pro~ 0                  0                104             
 4 04/25~ Irwin County Det~ 0                  0                71              
 5 04/25~ Robert A. Deyton~ 0                  0                6               
 6 04/25~ Sheriff Al Canno~ 0                  0                1               
 7 04/25~ Stewart Detentio~ 2                  4                495             
 8 04/25~ Howard County De~ 0                  0                2               
 9 04/25~ Worcester County~ 0                  0                1               
10 04/25~ Bristol County D~ 0                  0                9               
# ... with 119 more rows
…
x dplyr::lag()            masks stats::lag()
# A tibble: 1 x 3
  Date       `Total Detained` `Total Tested`
  <chr>                 <dbl>          <dbl>
1 04/26/2021            15830         145215
# A tibble: 1 x 4
  Date      `Total COVID-19 Confirmed in~ `Total Deaths` `Total Cumulative COVI~
  <chr>                             <dbl>          <dbl>                   <dbl>
1 04/26/20~                          1094              9                   12486
# A tibble: 1 x 6
  Date     `Total Detained` `Total Cumulative COV~ `Total Tested` `Total Deaths`
  <chr>               <dbl>                  <dbl>          <dbl>          <dbl>
1 04/26/2~            15830                  12486         145215              9
# ... with 1 more variable: Total COVID-19 Confirmed in Custody <dbl>
# A tibble: 130 x 5
   Date   `Custody/AOR/Fac~ `Confirmed cases ~ `Detainee death~ `Total confirme~
   <chr>  <chr>             <chr>              <chr>            <chr>           
 1 04/26~ Charleston Count~ 0                  0                2               
 2 04/26~ Columbia Regiona~ 0                  0                1               
 3 04/26~ Folkston ICE Pro~ 10                 0                114             
 4 04/26~ Irwin County Det~ 0                  0                71              
 5 04/26~ Robert A. Deyton~ 0                  0                6               
 6 04/26~ Sheriff Al Canno~ 0                  0                1               
 7 04/26~ Stewart Detentio~ 3                  4                496             
 8 04/26~ Howard County De~ 0                  0                2               
 9 04/26~ Worcester County~ 0                  0                1               
10 04/26~ Bristol County D~ 0                  0                9               
# ... with 120 more rows
…
x dplyr::lag()            masks stats::lag()
# A tibble: 1 x 3
  Date       `Total Detained` `Total Tested`
  <chr>                 <dbl>          <dbl>
1 04/27/2021            15830         145215
# A tibble: 1 x 4
  Date      `Total COVID-19 Confirmed in~ `Total Deaths` `Total Cumulative COVI~
  <chr>                             <dbl>          <dbl>                   <dbl>
1 04/27/20~                          1147              9                   12549
# A tibble: 1 x 6
  Date     `Total Detained` `Total Cumulative COV~ `Total Tested` `Total Deaths`
  <chr>               <dbl>                  <dbl>          <dbl>          <dbl>
1 04/27/2~            15830                  12549         145215              9
# ... with 1 more variable: Total COVID-19 Confirmed in Custody <dbl>
# A tibble: 130 x 5
   Date   `Custody/AOR/Fac~ `Confirmed cases ~ `Detainee death~ `Total confirme~
   <chr>  <chr>             <chr>              <chr>            <chr>           
 1 04/27~ Charleston Count~ 0                  0                2               
 2 04/27~ Columbia Regiona~ 0                  0                1               
 3 04/27~ Folkston ICE Pro~ 10                 0                114             
 4 04/27~ Irwin County Det~ 0                  0                71              
 5 04/27~ Robert A. Deyton~ 0                  0                6               
 6 04/27~ Sheriff Al Canno~ 0                  0                1               
 7 04/27~ Stewart Detentio~ 3                  4                496             
 8 04/27~ Howard County De~ 0                  0                2               
 9 04/27~ Worcester County~ 0                  0                1               
10 04/27~ Bristol County D~ 0                  0                9               
# ... with 120 more rows
…
x dplyr::lag()            masks stats::lag()
# A tibble: 1 x 3
  Date       `Total Detained` `Total Tested`
  <chr>                 <dbl>          <dbl>
1 04/28/2021            15830         145215
# A tibble: 1 x 4
  Date      `Total COVID-19 Confirmed in~ `Total Deaths` `Total Cumulative COVI~
  <chr>                             <dbl>          <dbl>                   <dbl>
1 04/28/20~                          1278              9                   12757
# A tibble: 1 x 6
  Date     `Total Detained` `Total Cumulative COV~ `Total Tested` `Total Deaths`
  <chr>               <dbl>                  <dbl>          <dbl>          <dbl>
1 04/28/2~            15830                  12757         145215              9
# ... with 1 more variable: Total COVID-19 Confirmed in Custody <dbl>
# A tibble: 130 x 5
   Date   `Custody/AOR/Fac~ `Confirmed cases ~ `Detainee death~ `Total confirme~
   <chr>  <chr>             <chr>              <chr>            <chr>           
 1 04/28~ Charleston Count~ 0                  0                2               
 2 04/28~ Columbia Regiona~ 0                  0                1               
 3 04/28~ Folkston ICE Pro~ 17                 0                121             
 4 04/28~ Irwin County Det~ 0                  0                71              
 5 04/28~ Robert A. Deyton~ 0                  0                6               
 6 04/28~ Sheriff Al Canno~ 0                  0                1               
 7 04/28~ Stewart Detentio~ 6                  4                499             
 8 04/28~ Howard County De~ 0                  0                2               
 9 04/28~ Worcester County~ 0                  0                1               
10 04/28~ Bristol County D~ 0                  0                9               
# ... with 120 more rows
…
